{"frames": [
{
	"filename": "defence00",
	"frame": {"x":600,"y":600,"w":200,"h":200},
	"rotated": false,
	"trimmed": true,
	"spriteSourceSize": {"x":0,"y":0,"w":200,"h":200},
	"sourceSize": {"w":200,"h":200}
}
],
"meta": {
	"app": "http://www.texturepacker.com",
	"version": "1.0",
	"image": "running_bot.png",
	"format": "RGBA8888",
	"size": {"w":252,"h":256},
	"scale": "0.2",
	"smartupdate": "$TexturePacker:SmartUpdate:fb56f261b1eb04e3215824426595f64c$"
}
}